<?xml version="1.0" encoding="utf-8"?>
<!-- Generator: Adobe Illustrator 15.0.0, SVG Export Plug-In . SVG Version: 6.00 Build 0)  -->
<!DOCTYPE svg PUBLIC "-//W3C//DTD SVG 1.1//EN" "http://www.w3.org/Graphics/SVG/1.1/DTD/svg11.dtd">
<svg version="1.1" id="slim" xmlns="http://www.w3.org/2000/svg" xmlns:xlink="http://www.w3.org/1999/xlink" x="0px" y="0px"
	 width="12.321px" height="20px" viewBox="1.565 0 12.321 20" enable-background="new 1.565 0 12.321 20" xml:space="preserve">
<path fill="#FFFFFF" d="M8.478,0v5.055h4.744v3.139H8.478v5.129c0,1.161,0.061,1.905,0.184,2.232c0.123,0.33,0.352,0.593,0.686,0.79
	c0.442,0.265,0.947,0.397,1.518,0.397c1.012,0,2.02-0.329,3.021-0.987v3.155c-0.855,0.401-1.629,0.684-2.32,0.846
	C10.872,19.92,10.122,20,9.317,20c-0.914,0-1.723-0.116-2.424-0.347c-0.703-0.232-1.302-0.56-1.798-0.987s-0.84-0.883-1.032-1.364
	c-0.192-0.48-0.288-1.179-0.288-2.093V8.193H1.565V5.365c0.786-0.256,1.459-0.623,2.019-1.098c0.56-0.477,1.011-1.048,1.349-1.719
	C5.272,1.882,5.505,1.032,5.633,0H8.478z"/>
</svg>
