{
    "prepare_queue": {
        "installed": [],
        "uninstalled": []
    },
    "config_munge": {
        "files": {}
    },
    "installed_plugins": {
        "com.bunkerpalace.cordova.YoutubeVideoPlayer": {
            "PACKAGE_NAME": "com.alleyezonmethemovie.www"
        },
        "com.hutchind.cordova.plugins.streamingmedia": {
            "PACKAGE_NAME": "com.alleyezonmethemovie.www"
        },
        "cordova-plugin-braintree": {
            "PACKAGE_NAME": "com.alleyezonmethemovie.www"
        },
        "cordova-plugin-device": {
            "PACKAGE_NAME": "com.alleyezonmethemovie.www"
        },
        "cordova-plugin-file": {
            "PACKAGE_NAME": "com.alleyezonmethemovie.www"
        },
        "cordova-plugin-inappbrowser": {
            "PACKAGE_NAME": "com.alleyezonmethemovie.www"
        },
        "cordova-plugin-whitelist": {
            "PACKAGE_NAME": "com.alleyezonmethemovie.www"
        },
        "cordova-sqlite-storage": {
            "PACKAGE_NAME": "com.alleyezonmethemovie.www"
        },
        "org.devgeeks.Canvas2ImagePlugin": {
            "PACKAGE_NAME": "com.alleyezonmethemovie.www"
        }
    },
    "dependent_plugins": {
        "cordova-plugin-compat": {
            "PACKAGE_NAME": "com.alleyezonmethemovie.www"
        }
    }
}